Melee , 5 , 5 , 5
Melee , 3 , 1 , 2
Melee , 5 , 5 , 5
Melee , 9 , 9 , 9
Melee , 10 , 10 , 10
Melee , 11 , 11 , 11
Melee , 7 , 3 , 5
Melee , 3 , 3 , 3
Melee , 4 , 2 , 3
Melee , 10 , 10 , 10
Melee , 5 , 5 , 5
Melee , 8 , 4 , 6
Melee , 4 , 2 , 3
Melee , 2 , 2 , 2
Melee , 11 , 11 , 11
Magic , -1 , 3 , 1
Melee , 9 , 9 , 9
Melee , 4 , 4 , 4
Melee , 3 , 3 , 3
Melee , 4 , 2 , 3
Melee , 10 , 10 , 10
Melee , 4 , 2 , 3
Melee , 9 , 9 , 9
Melee , 9 , 9 , 9
Melee , 11 , 11 , 11
Melee , 6 , 6 , 6
Melee , 7 , 3 , 5
Melee , 3 , 1 , 2
Melee , 2 , 2 , 2
Melee , 11 , 5 , 8
